<?xml version="1.0" standalone="no"?>
<!DOCTYPE svg PUBLIC "-//W3C//DTD SVG 20010904//EN"
 "http://www.w3.org/TR/2001/REC-SVG-20010904/DTD/svg10.dtd">
<svg version="1.0" xmlns="http://www.w3.org/2000/svg"
 width="1024.000000pt" height="1024.000000pt" viewBox="0 0 1024.000000 1024.000000"
 preserveAspectRatio="xMidYMid meet">
<metadata>
Created by potrace 1.11, written by Peter Selinger 2001-2013
</metadata>
<g transform="translate(0.000000,1024.000000) scale(0.100000,-0.100000)"
fill="#000000" stroke="none">
<path d="M0 5120 l0 -5120 5120 0 5120 0 0 5120 0 5120 -5120 0 -5120 0 0
-5120z m4551 3655 c514 -54 865 -237 1075 -561 125 -191 196 -405 236 -714 17
-133 17 -772 0 -910 -28 -218 -84 -424 -153 -562 -106 -212 -287 -400 -482
-499 l-58 -30 90 -44 c359 -175 578 -469 675 -906 46 -211 51 -287 51 -854 0
-461 -2 -545 -18 -645 -61 -389 -187 -661 -406 -881 -213 -213 -464 -332 -846
-401 -117 -22 -143 -22 -1137 -26 l-1018 -3 0 3526 0 3525 928 0 c739 0 955
-3 1063 -15z m3119 -6500 l0 -535 -535 0 -535 0 0 535 0 535 535 0 535 0 0
-535z"/>
<path d="M3670 6849 l0 -931 298 4 c262 5 306 8 375 26 220 60 345 200 400
448 20 92 22 126 21 474 0 348 -1 382 -22 475 -41 191 -125 316 -255 380 -98
47 -165 55 -504 55 l-313 0 0 -931z"/>
<path d="M3670 3831 l0 -1081 365 0 c295 0 381 3 443 16 88 18 195 70 240 117
50 52 98 142 121 225 38 141 43 244 38 728 -3 376 -7 475 -21 547 -56 290
-175 433 -414 499 -70 19 -110 22 -424 26 l-348 4 0 -1081z"/>
</g>
</svg>
